Individualized Athlete Monitoring in R, Part 2 (Building a Predictive Model) | Sams Performance Training
…
Building a Model

As always, it’s much easier to show than tell with this stuff, so how about an example. You can find the data for this post here.

## # A tibble: 2,930 x 13
##    athlete date       season session activity field.minutes odometer
##    <fct>   <date>     <fct>    <int> <fct>            <dbl>    <int>
##  1 Jonath~ 2014-08-13 Fall ~       1 Soccer 1          75.3     7201
##  2 Dhaki ~ 2014-08-13 Fall ~       1 Soccer 1          69.5     7300
##  3 Corey ~ 2014-08-13 Fall ~       1 Soccer 1          76.6     7586
##  4 Issac ~ 2014-08-13 Fall ~       1 Soccer 1          80.7     3880
##  5 Phoeni~ 2014-08-13 Fall ~       1 Soccer 1          59.1     5774
##  6 Carrol~ 2014-08-13 Fall ~       1 Soccer 1          80.7     7807
##  7 Neulyn~ 2014-08-13 Fall ~       1 Soccer 1          69.6     7617
##  8 Jonath~ 2014-08-14 Fall ~       1 Soccer 1          82.3     3962
##  9 Bobby ~ 2014-08-14 Fall ~       1 Soccer 1          82.1     3792
## 10 Daniel~ 2014-08-14 Fall ~       1 Soccer 1          79.3     3671
## # ... with 2,920 more rows, and 6 more variables: work.rate <dbl>,
## #   plyr.ld <int>, hi.run <int>, duration <int>, rpetl <int>, phase <fct>
…
